12.9242984383562,7.80226032876712,-2.76881071232877
7.57639843835616,16.4122603287671,-2.36961071232877
-2.03930156164384,15.8608603287671,-0.92831071232877
-12.5016015616438,13.4663603287671,-1.24541071232877
-12.4886015616438,5.85466032876712,-0.903610712328767
-15.8334015616438,1.07236032876713,-1.43621071232877
-15.8293015616438,-4.17943967123288,-1.42591071232877
-13.4532015616438,-9.47553967123287,-1.90501071232877
-10.0976015616438,-13.3061396712329,-1.85601071232877
-5.78320156164384,-15.2383396712329,-1.97751071232877
0.949598438356164,-16.2423396712329,-2.37241071232877
6.28519843835616,-15.3609396712329,-3.14761071232877
10.1611984383562,-12.9675396712329,-3.40901071232877
13.5425984383562,-9.10393967123287,-3.52371071232877
15.9223984383562,-3.77173967123287,-3.35731071232877
16.3506984383562,1.54916032876712,-3.05491071232877
-1.53220156164384,-9.78293967123287,0.0905892876712322
0.241998438356164,9.66956032876712,2.37518928767123
-10.0941015616438,-11.3441396712329,-1.36821071232877
9.91739843835616,7.32446032876712,-1.19511071232877
9.11209843835617,-11.4228396712329,-2.36231071232877
-6.28540156164384,-7.86703967123288,0.324889287671233
4.08539843835616,-3.05353967123288,1.37808928767123
4.16299843835616,-8.81883967123287,0.191489287671232
5.74199843835616,-13.3364396712329,-2.21521071232877
-1.58870156164384,-4.45073967123287,1.82378928767123
-13.9025015616438,-6.52923967123288,-0.866410712328769
-11.5289015616438,6.33686032876712,-0.438610712328767
-3.47950156164384,14.4068603287671,0.0161892876712315
12.9506984383562,-7.09133967123288,-2.41681071232877
-6.77390156164384,-1.15353967123288,1.94318928767123
5.95609843835616,3.55796032876712,1.34508928767123
-10.1293015616438,12.0540603287671,-1.78541071232877
-11.0279015616438,1.62576032876712,0.766289287671231
-14.8549015616438,-0.330339671232878,-0.738510712328768
-6.31800156164384,10.1344603287671,0.903689287671231
-1.62880156164384,2.17296032876713,2.80978928767123
-10.5556015616438,-4.55163967123288,0.278089287671232
0.433498438356164,-14.2261396712329,-1.49061071232877
-5.79080156164384,-13.7198396712329,-1.20631071232877
9.86829843835616,-1.22443967123288,-0.164910712328769
13.3620984383562,3.01286032876713,-2.09181071232877
14.3824984383562,-2.28283967123287,-2.49031071232877
4.68089843835616,13.0444603287671,-1.81511071232877
8.48009843835616,-6.00723967123287,-0.492010712328767
-7.25420156164384,5.42926032876712,1.95108928767123
