2.4215,-73.2128,-1.9071
6.3931,-88.0032,-3.985
26.8837,-86.938,-2.9416
58.6685,-82.2932,-4.5922
52.5381,-59.5052,-1.9462
64.1434,-48.7444,-1.4843
67.4243,-30.9776,-1.7819
61.2664,-15.7837,-1.4571
50.2204,-5.1621,0.9566
31.8844,3.6503,-0.7633
16.1474,4.6961,0.551
1.2959,1.3973,-2.1113
-16.4491,-9.5175,-2.5406
-24.1259,-22.1637,-1.4959
-27.3857,-38.9687,-0.6688
-14.8972,-58.0555,-0.4901
20.0344434643996,-13.961245749203,13.4324397449522
20.825952279381,-70.3869602676705,15.7460685905479
48.8758662028725,-10.1053597845601,4.68588770197487
4.10407865824016,-70.0304172095284,6.60494117647059
-12.8543330106486,-13.8825209583736,2.8444123910939
36.1950394031361,-19.0148518968134,13.9425252908447
7.43308470451912,-37.096356373117,16.6088243337196
5.27685217630855,-19.4626198898072,12.3932250137741
1.27338520434558,-4.65249192964304,2.98439161924469
22.1964347275729,-30.4851088607595,17.8612302696753
60.7203082516761,-24.1318855595668,3.72607921609077
51.2736368625546,-61.4152482272948,4.02014210781932
30.9719835436893,-82.5496489320389,3.68080383495146
-21.440522369146,-27.7074422589532,2.33721487603306
35.9146690525232,-38.9352564881565,17.8725219361483
6.8411618127786,-56.6390005943536,16.1960680039624
49.1506231603774,-76.9085431603774,-1.66252476415095
49.5228380097879,-47.8716394779771,12.9215517128874
61.8617256611167,-43.0338058765917,4.71642047012732
37.3562931034483,-71.701783084809,12.0360064305685
22.3002441218468,-50.0650185149929,20.4562590195145
49.2409330886209,-29.6554586261143,12.6124824331411
16.8455053653552,-0.119263004598874,4.68340255493102
33.0752599727396,-2.25450009086778,4.53833893684689
-6.60660118343195,-44.4867670790747,12.3940607315761
-8.81165844889575,-59.0916602978941,6.28271828454033
-20.4304155568312,-44.3107202066589,4.24672870264064
13.4808383848454,-81.712105333998,1.70795867397806
-7.6078816191446,-28.34331496945,11.5428784623218
36.6161380597014,-57.6028348756218,17.918025920398
