-21.1164855130684,-8.25433916162435,15.0482940533965
-19.4334855130684,-13.1710391616243,25.4363940533965
-1.02788551306843,-14.9883391616244,27.1597940533965
17.7880144869316,-15.4484391616243,28.5458940533965
19.0184144869316,-11.0248391616244,20.0165940533965
31.4090144869316,-8.69903916162436,13.8250940533965
34.4689144869316,-5.31123916162435,4.98399405339654
33.2763144869316,-2.22263916162435,-5.41290594660346
28.8388144869316,0.27416083837565,-15.9695059466035
18.5851144869316,3.47376083837565,-26.3952059466035
0.92351448693157,5.12286083837564,-33.1364059466035
-16.0558855130684,4.90766083837565,-29.4663059466035
-27.4825855130684,2.76496083837565,-20.4211059466035
-32.8995855130684,1.30566083837564,-10.7839059466035
-35.3634855130684,-2.05243916162436,0.542894053396545
-30.5970855130684,-5.48793916162435,9.27719405339655
4.16671448693157,6.85366083837565,-16.1594059466035
-3.18728551306843,-3.19893916162435,18.7803940533965
27.3034144869316,0.660460838375649,-12.6355059466035
-17.7427855130684,-4.57853916162436,15.4152940533965
-24.1694855130684,3.66186083837565,-17.3874059466035
16.7255144869316,3.51286083837564,-9.57310594660346
-8.39708551306843,4.04866083837565,-1.44980594660346
-9.47478551306843,5.88146083837565,-13.5478059466035
-14.2198855130684,5.56166083837564,-25.0466059466035
4.78591448693157,5.15106083837565,-3.90130594660346
31.9012144869316,-2.95183916162436,-0.665105946603456
18.7198144869316,-8.90183916162435,19.8318940533965
2.31241448693157,-11.5075391616244,26.0236940533965
-30.4614855130684,1.07286083837565,-7.27220594660346
13.5135144869316,1.79166083837565,3.60599405339654
-11.7687855130684,-0.204739161624353,9.27309405339654
13.4905144869316,-13.1598391616244,25.8405940533965
21.3164144869316,-3.62383916162435,11.1251940533965
30.5132144869316,-6.23903916162435,10.3387940533965
8.59351448693157,-6.74493916162435,21.9184940533965
1.25741448693157,2.48706083837565,8.20219405339654
24.2402144869316,-0.798339161624355,0.254394053396544
1.86841448693157,5.99226083837565,-28.4191059466035
17.8126144869316,4.13646083837565,-22.2935059466035
-20.5019855130684,0.561260838375645,2.22689405339655
-25.4070855130684,-3.27743916162435,9.58089405339654
-30.9209855130684,-1.75223916162435,2.68619405339654
-11.7684855130684,-10.3977391616244,22.3089940533965
-19.2793855130684,3.31136083837565,-7.73250594660346
10.8978144869316,-1.83653916162435,14.5576940533965
